<svg>
    <defs>
        <svg id="search" xmlns="http://www.w3.org/2000/svg" width="12" height="12" viewBox="0 0 12 12">
            <path id="Контур_3554" data-name="Контур 3554"
                  d="M10.178,11.687,9.2,10.706A5.875,5.875,0,1,1,10.706,9.2l.981.981a1.067,1.067,0,1,1-1.509,1.509ZM1.868,5.871a4,4,0,1,0,4-4A4.007,4.007,0,0,0,1.868,5.871Z"
                  fill="currentColor"/>
        </svg>
        <svg id="phone" xmlns="http://www.w3.org/2000/svg" width="12" height="12" viewBox="0 0 12 12">
            <path id="Контур_18283" data-name="Контур 18283"
                  d="M9.815,12c-.049,0-.1,0-.148-.007A10.863,10.863,0,0,1,4.95,10.32,10.693,10.693,0,0,1,1.679,7.053,10.81,10.81,0,0,1,.007,2.336,1.665,1.665,0,0,1,1.517.518c.049,0,.1-.007.149-.007H3.222A1.67,1.67,0,0,1,4.867,1.943a5.965,5.965,0,0,0,.325,1.305A1.667,1.667,0,0,1,4.816,5l-.3.3A7.575,7.575,0,0,0,6.69,7.468l.3-.295A1.678,1.678,0,0,1,8.747,6.8a5.967,5.967,0,0,0,1.3.323A1.667,1.667,0,0,1,11.487,8.8v1.53A1.665,1.665,0,0,1,9.827,12Zm-.51-6.648a.641.641,0,0,1-.629-.517,1.915,1.915,0,0,0-1.52-1.518A.64.64,0,1,1,7.4,2.06,3.191,3.191,0,0,1,9.936,4.59a.641.641,0,0,1-.63.763m2.052-.005a.64.64,0,0,1-.636-.569,3.952,3.952,0,0,0-3.512-3.5A.64.64,0,1,1,7.35,0,5.226,5.226,0,0,1,12,4.636a.64.64,0,0,1-.565.707.584.584,0,0,1-.073,0"
                  transform="translate(0 0)" fill="currentColor"/>
        </svg>
        <svg id="angle-right" xmlns="http://www.w3.org/2000/svg" width="6" height="10" viewBox="0 0 6 10">
            <path id="Контур_18284" data-name="Контур 18284"
                  d="M.993,10a.99.99,0,0,0,.7-.291L5.709,5.7a.991.991,0,0,0,0-1.4L1.7.29a.992.992,0,0,0-1.4,1.4L3.6,5,.291,8.308A.992.992,0,0,0,.993,10"
                  transform="translate(0 0)" fill="currentColor"/>
        </svg>
        <svg id="tw" xmlns="http://www.w3.org/2000/svg" width="18" height="14.628" viewBox="0 0 18 14.628">
            <path id="Контур_568" data-name="Контур 568"
                  d="M22.922,8.4a7.368,7.368,0,0,1-2.121.581,3.7,3.7,0,0,0,1.624-2.043,7.393,7.393,0,0,1-2.345.9,3.7,3.7,0,0,0-6.293,3.369A10.483,10.483,0,0,1,6.175,7.348a3.7,3.7,0,0,0,1.143,4.931,3.667,3.667,0,0,1-1.673-.462c0,.016,0,.031,0,.047a3.7,3.7,0,0,0,2.963,3.621,3.707,3.707,0,0,1-1.668.064,3.7,3.7,0,0,0,3.45,2.565,7.455,7.455,0,0,1-5.467,1.529A10.5,10.5,0,0,0,21.09,10.793c0-.16,0-.319-.011-.478A7.489,7.489,0,0,0,22.922,8.4Z"
                  transform="translate(-4.922 -6.672)" fill="currentColor"/>
        </svg>
        <svg id="ig" xmlns="http://www.w3.org/2000/svg" width="18" height="18.001" viewBox="0 0 18 18.001">
            <path id="Контур_18285" data-name="Контур 18285"
                  d="M6198.586,7145.15v8.92a4.546,4.546,0,0,0,4.54,4.54h8.92a4.544,4.544,0,0,0,4.54-4.54v-8.92a4.546,4.546,0,0,0-4.54-4.541h-8.92A4.548,4.548,0,0,0,6198.586,7145.15Zm4.54,11.5a2.585,2.585,0,0,1-2.582-2.582v-8.92a2.582,2.582,0,0,1,2.582-2.579h8.92a2.582,2.582,0,0,1,2.582,2.579v8.92a2.585,2.585,0,0,1-2.582,2.582Zm-.176-7.042a4.636,4.636,0,1,0,4.637-4.636A4.641,4.641,0,0,0,6202.95,7149.61Zm8.325-4.773a1.1,1.1,0,1,0,1.1-1.1A1.1,1.1,0,0,0,6211.275,7144.837Zm-6.367,4.773a2.678,2.678,0,1,1,2.679,2.678A2.681,2.681,0,0,1,6204.908,7149.61Z"
                  transform="translate(-6198.586 -7140.609)" fill="currentColor"/>
        </svg>
        <svg id="fb" xmlns="http://www.w3.org/2000/svg" width="18" height="18" viewBox="0 0 18 18">
            <g id="Сгруппировать_15655" data-name="Сгруппировать 15655" transform="translate(-30 -26)">
                <rect id="Прямоугольник_5590" data-name="Прямоугольник 5590" width="18" height="18"
                      transform="translate(30 26)" fill="#fff" opacity="0"/>
                <path id="Контур_567" data-name="Контур 567"
                      d="M15.379,13.25H12.917v9.017H9.188V13.25H7.414V10.081H9.188V8.03A3.5,3.5,0,0,1,12.95,4.267l2.762.012V7.355h-2a.759.759,0,0,0-.791.864v1.865H15.7Z"
                      transform="translate(27.437 21.732)" fill="currentColor"/>
            </g>
        </svg>
        <svg id="tg" xmlns="http://www.w3.org/2000/svg" xmlns:xlink="http://www.w3.org/1999/xlink" width="18"
             height="18" viewBox="0 0 18 18">
            <defs>
                <clipPath id="clip-path">
                    <rect id="Прямоугольник_5590" data-name="Прямоугольник 5590" width="18" height="18"
                          transform="translate(30 26)" fill="currentColor"/>
                </clipPath>
            </defs>
            <g id="Группа_масок_12378" data-name="Группа масок 12378" transform="translate(-30 -26)"
               clip-path="url(#clip-path)">
                <g id="iconmonstr-telegram-1" transform="translate(29.995 43.258)">
                    <path id="Контур_18287" data-name="Контур 18287"
                          d="M9.227-12.753C4.831-11.1,1.035-9.685.8-9.6c-.758.278-.983.668-.623,1.08.135.165.548.315,2.266.848l2.1.653.87,2.581c.87,2.6.938,2.738,1.32,2.828.255.068.473-.09,1.658-1.23A13.025,13.025,0,0,1,9.6-3.9c.045,0,1.02.683,2.161,1.515A23.636,23.636,0,0,0,14.119-.8a.87.87,0,0,0,.915-.345C15.132-1.3,18-14.936,18-15.252a.66.66,0,0,0-.578-.5C17.315-15.747,13.624-14.4,9.227-12.753Zm5.536-.218c.015.09-3.774,3.578-7.494,6.894-.2.18-.218.233-.338,1.448a10.878,10.878,0,0,1-.158,1.223c-.015-.015-.3-.915-.63-2a7.766,7.766,0,0,1-.518-2.056c.045-.045,2.041-1.335,4.449-2.873,2.6-1.665,4.426-2.791,4.516-2.776A.2.2,0,0,1,14.764-12.971Z"
                          fill="currentColor"/>
                </g>
            </g>
        </svg>
        <svg id="calendar" xmlns="http://www.w3.org/2000/svg" width="13" height="13.002" viewBox="0 0 13 13.002">
            <path id="Path_18288" data-name="Path 18288"
                  d="M-19314.811,11281a1.183,1.183,0,0,1-1.191-1.174v-9.215a1.2,1.2,0,0,1,1.16-1.169v1.576a1.3,1.3,0,0,0,1.314,1.284h.834a1.306,1.306,0,0,0,1.328-1.284v-1.581h3.738v1.581a1.3,1.3,0,0,0,1.324,1.284h.832a1.3,1.3,0,0,0,1.314-1.284v-1.576a1.19,1.19,0,0,1,1.154,1.169v9.215a1.178,1.178,0,0,1-1.184,1.174Zm7.119-3.258v1.027a.29.29,0,0,0,.3.3h1.051a.3.3,0,0,0,.309-.3v-1.027a.3.3,0,0,0-.309-.3h-1.051A.293.293,0,0,0-19307.691,11277.743Zm-2.637,0v1.027a.293.293,0,0,0,.3.3h1.051a.293.293,0,0,0,.3-.3v-1.027a.3.3,0,0,0-.3-.3h-1.051A.3.3,0,0,0-19310.328,11277.743Zm-2.633,0v1.027a.293.293,0,0,0,.3.3h1.051a.293.293,0,0,0,.3-.3v-1.027a.3.3,0,0,0-.3-.3h-1.051A.3.3,0,0,0-19312.961,11277.743Zm5.27-2.574v1.027a.29.29,0,0,0,.3.3h1.051a.3.3,0,0,0,.309-.3v-1.027a.3.3,0,0,0-.309-.3h-1.051A.293.293,0,0,0-19307.691,11275.169Zm-2.637,0v1.027a.293.293,0,0,0,.3.3h1.051a.293.293,0,0,0,.3-.3v-1.027a.3.3,0,0,0-.3-.3h-1.051A.3.3,0,0,0-19310.328,11275.169Zm-2.633,0v1.027a.293.293,0,0,0,.3.3h1.051a.293.293,0,0,0,.3-.3v-1.027a.3.3,0,0,0-.3-.3h-1.051A.3.3,0,0,0-19312.961,11275.169Zm6.648-3.709a.449.449,0,0,1-.453-.44v-2.579a.45.45,0,0,1,.453-.441h.822a.448.448,0,0,1,.451.441v2.579a.447.447,0,0,1-.451.44Zm-7.215,0a.449.449,0,0,1-.451-.44v-2.579a.449.449,0,0,1,.451-.441h.824a.448.448,0,0,1,.451.441v2.579a.447.447,0,0,1-.451.44Z"
                  transform="translate(19316.002 -11267.999)" fill="currentColor"/>
        </svg>
        <svg id="play" xmlns="http://www.w3.org/2000/svg" xmlns:xlink="http://www.w3.org/1999/xlink" width="18"
             height="18"
             viewBox="0 0 18 18">
            <defs>
                <clipPath id="clip-path">
                    <rect id="Прямоугольник_5590" data-name="Прямоугольник 5590" width="18" height="18"
                          transform="translate(29 25)" fill="currentColor" stroke="#707070" stroke-width="1"/>
                </clipPath>
            </defs>
            <g id="Группа_масок_12372" data-name="Группа масок 12372" transform="translate(-29 -25)"
               clip-path="url(#clip-path)">
                <g id="logo-google-playstore" transform="translate(29.643 25)">
                    <path id="Контур_18277" data-name="Контур 18277"
                          d="M2.143,2.636v15.79a.174.174,0,0,0,.3.123l8.222-8.018L2.439,2.513a.174.174,0,0,0-.3.123Z"
                          transform="translate(-2.143 -1.532)" fill="currentColor"/>
                    <path id="Контур_18278" data-name="Контур 18278"
                          d="M14.263,7.134,3.954,1.454l-.006,0a.176.176,0,0,0-.2.284l8.081,7.727Z"
                          transform="translate(-2.298 -1.428)" fill="currentColor"/>
                    <path id="Контур_18279" data-name="Контур 18279"
                          d="M3.747,20.23a.176.176,0,0,0,.2.284l.006,0,10.308-5.68L11.828,12.5Z"
                          transform="translate(-2.298 -2.536)" fill="currentColor"/>
                    <path id="Контур_18280" data-name="Контур 18280"
                          d="M19.441,10.136,16.562,8.551l-2.707,2.59,2.707,2.589,2.879-1.584A1.153,1.153,0,0,0,19.441,10.136Z"
                          transform="translate(-3.314 -2.141)" fill="currentColor"/>
                </g>
            </g>
        </svg>
        <svg id="store" xmlns="http://www.w3.org/2000/svg" xmlns:xlink="http://www.w3.org/1999/xlink" width="18"
             height="18"
             viewBox="0 0 18 18">
            <defs>
                <clipPath id="clip-path">
                    <rect id="Прямоугольник_5590" data-name="Прямоугольник 5590" width="18" height="18"
                          transform="translate(30 26)" fill="currentColor" stroke="#707070" stroke-width="1"/>
                </clipPath>
            </defs>
            <g id="Группа_масок_12373" data-name="Группа масок 12373" transform="translate(-30 -26)"
               clip-path="url(#clip-path)">
                <g id="_2962084" data-name="2962084" transform="translate(25.41 48.197)">
                    <path id="Контур_18281" data-name="Контур 18281"
                          d="M16.455-22.177a4.515,4.515,0,0,0-2.616,1.628,4.115,4.115,0,0,0-.713,1.538l-.087.326,0,.346a2.942,2.942,0,0,0,.025.4c.027.068.078.078.441.08a1.369,1.369,0,0,0,.577-.076,3.05,3.05,0,0,0,1.552-.928c.087-.105.216-.245.284-.315a3.662,3.662,0,0,0,.678-1.146,4.166,4.166,0,0,0,.254-1.4l.012-.365-.054-.054C16.754-22.206,16.721-22.208,16.455-22.177Z"
                          transform="translate(0.53)" fill="currentColor"/>
                    <path id="Контур_18282" data-name="Контур 18282"
                          d="M16.831-17.916a11.6,11.6,0,0,0-2.421.635,3.054,3.054,0,0,1-.6.2,3.906,3.906,0,0,1-1.332-.371,9.4,9.4,0,0,0-1.38-.385,2.389,2.389,0,0,0-.837-.01c-.072.019-.3.062-.5.095a3.484,3.484,0,0,0-1.017.3A4.5,4.5,0,0,0,6.52-15.284,6.832,6.832,0,0,0,5.975-13.9a7.316,7.316,0,0,0-.009,2.886,1.8,1.8,0,0,1,.041.268,4.329,4.329,0,0,0,.2.855,6.86,6.86,0,0,0,.476,1.35A8.63,8.63,0,0,0,8.211-6.009a7.815,7.815,0,0,0,.854.994,2.919,2.919,0,0,0,.865.606,1.717,1.717,0,0,0,.891.212,3.694,3.694,0,0,0,1.487-.359,4.881,4.881,0,0,1,1.241-.332,2.085,2.085,0,0,1,.782.008l.374.054a3.919,3.919,0,0,1,.854.266,4.562,4.562,0,0,0,1.424.346,2.55,2.55,0,0,0,1.876-.814,10,10,0,0,0,1.9-2.546,7.308,7.308,0,0,0,.48-1.1.919.919,0,0,1,.076-.2.3.3,0,0,0,.041-.111c0-.074-.159-.192-.439-.326a3.845,3.845,0,0,1-1.4-1.2,3.907,3.907,0,0,1-.565-1.206,4.588,4.588,0,0,1-.076-1.484A3.965,3.965,0,0,1,19-13.687a2.814,2.814,0,0,1,.728-1.356,1.831,1.831,0,0,0,.193-.21,4.283,4.283,0,0,1,.663-.526,1.194,1.194,0,0,0,.2-.136c.12-.111.1-.155-.2-.489a4.574,4.574,0,0,0-1.5-1.088,3.933,3.933,0,0,0-.987-.326A5.9,5.9,0,0,0,16.831-17.916Z"
                          fill="currentColor"/>
                </g>
            </g>
        </svg>
        <svg id="burger" xmlns="http://www.w3.org/2000/svg" width="11.999" height="9.999" viewBox="0 0 11.999 9.999">
            <path id="Union_207" data-name="Union 207"
                  d="M-1902,7440a1,1,0,0,1-1-1,1,1,0,0,1,1-1h6a1,1,0,0,1,1,1,1,1,0,0,1-1,1Zm-2-4a1,1,0,0,1-1-1,1,1,0,0,1,1-1h10a1,1,0,0,1,1,1,1,1,0,0,1-1,1Zm2-4a1,1,0,0,1-1-1,1,1,0,0,1,1-1h6a1,1,0,0,1,1,1,1,1,0,0,1-1,1Z"
                  transform="translate(1904.999 -7430.001)" fill="currentColor"/>
        </svg>
        <svg id="arrow-top-right" fill="currentColor" xmlns="http://www.w3.org/2000/svg" width="10" height="10"
             viewBox="0 0 10 10">
            <path id="Path_18724" data-name="Path 18724"
                  d="M-2089.771,7145.851a1.282,1.282,0,0,1-.379-.911,1.307,1.307,0,0,1,.379-.916l5.211-5.212-4.253,0a1.283,1.283,0,0,1-1.29-1.289,1.281,1.281,0,0,1,.377-.914,1.281,1.281,0,0,1,.912-.376h7.371a1.292,1.292,0,0,1,1.291,1.29v7.375a1.293,1.293,0,0,1-1.29,1.29,1.286,1.286,0,0,1-1.29-1.292v-4.258l-5.215,5.217a1.283,1.283,0,0,1-.911.378A1.289,1.289,0,0,1-2089.771,7145.851Z"
                  transform="translate(2090.15 -7136.23)"/>
        </svg>
        <svg id="arrow-left" data-name="Group 13479" xmlns="http://www.w3.org/2000/svg" width="22" height="22"
             viewBox="0 0 22 22">
            <rect id="Rectangle_3124" data-name="Rectangle 3124" width="22" height="22" fill="#051914" opacity="0"/>
            <path id="Path_3548" data-name="Path 3548"
                  d="M6.3,12.6a1.244,1.244,0,0,1-.883-.366L.366,7.181a1.249,1.249,0,0,1,0-1.767L5.415.365A1.249,1.249,0,0,1,7.181,2.132L3.016,6.3l4.165,4.166A1.249,1.249,0,0,1,6.3,12.6"
                  transform="translate(7.226 4.702)" fill="currentColor"/>
        </svg>
        <svg id="arrow-right" xmlns="http://www.w3.org/2000/svg" width="22" height="22" viewBox="0 0 22 22">
            <g id="Group_13479" data-name="Group 13479" transform="translate(0.275 0.275)">
                <rect id="Rectangle_3124" data-name="Rectangle 3124" width="22" height="22"
                      transform="translate(-0.275 -0.275)" fill="#051914" opacity="0"/>
                <path id="Path_3548" data-name="Path 3548"
                      d="M1.249,12.6a1.244,1.244,0,0,0,.883-.366L7.181,7.181a1.249,1.249,0,0,0,0-1.767L2.132.365A1.249,1.249,0,0,0,.366,2.132L4.531,6.3.366,10.463A1.249,1.249,0,0,0,1.249,12.6"
                      transform="translate(6.952 4.427)" fill="currentColor"/>
            </g>
        </svg>
        <svg id="home" xmlns="http://www.w3.org/2000/svg" width="14" height="14" viewBox="0 0 14 14">
            <path id="Path_15640" data-name="Path 15640"
                  d="M5.556,13.475v-2.14A1.02,1.02,0,0,1,6.6,10.345H8.722a1.082,1.082,0,0,1,.742.29.961.961,0,0,1,.307.7v2.14a.828.828,0,0,0,.262.607.932.932,0,0,0,.641.252H12.12a2.621,2.621,0,0,0,1.8-.7,2.328,2.328,0,0,0,.746-1.7V5.84a1.7,1.7,0,0,0-.66-1.332L9.092.806a2.375,2.375,0,0,0-2.91.05l-4.8,3.652A1.705,1.705,0,0,0,.667,5.84v6.091a2.477,2.477,0,0,0,2.547,2.4H4.625a.886.886,0,0,0,.91-.852Z"
                  transform="translate(-0.667 -0.333)" fill="currentColor"/>
        </svg>
        <svg id="eye" xmlns="http://www.w3.org/2000/svg" fill="currentColor"
             viewBox="0 0 576 512">
            <path d="M279.6 160.4C282.4 160.1 285.2 160 288 160C341 160 384 202.1 384 256C384 309 341 352 288 352C234.1 352 192 309 192 256C192 253.2 192.1 250.4 192.4 247.6C201.7 252.1 212.5 256 224 256C259.3 256 288 227.3 288 192C288 180.5 284.1 169.7 279.6 160.4zM480.6 112.6C527.4 156 558.7 207.1 573.5 243.7C576.8 251.6 576.8 260.4 573.5 268.3C558.7 304 527.4 355.1 480.6 399.4C433.5 443.2 368.8 480 288 480C207.2 480 142.5 443.2 95.42 399.4C48.62 355.1 17.34 304 2.461 268.3C-.8205 260.4-.8205 251.6 2.461 243.7C17.34 207.1 48.62 156 95.42 112.6C142.5 68.84 207.2 32 288 32C368.8 32 433.5 68.84 480.6 112.6V112.6zM288 112C208.5 112 144 176.5 144 256C144 335.5 208.5 400 288 400C367.5 400 432 335.5 432 256C432 176.5 367.5 112 288 112z"/>
        </svg>
        <svg id="check" xmlns="http://www.w3.org/2000/svg" fill="currentColor" viewBox="0 0 448 512">
            <path d="M438.6 105.4C451.1 117.9 451.1 138.1 438.6 150.6L182.6 406.6C170.1 419.1 149.9 419.1 137.4 406.6L9.372 278.6C-3.124 266.1-3.124 245.9 9.372 233.4C21.87 220.9 42.13 220.9 54.63 233.4L159.1 338.7L393.4 105.4C405.9 92.88 426.1 92.88 438.6 105.4H438.6z"/>
        </svg>
        <svg id="times" xmlns="http://www.w3.org/2000/svg" width="9.072" height="9.072" viewBox="0 0 9.072 9.072">
            <path id="Path_18745" data-name="Path 18745"
                  d="M-1827.221,8522.191l-2.829-2.828-2.829,2.828a1,1,0,0,1-1.414,0,1,1,0,0,1,0-1.413l2.829-2.829-2.829-2.829a1,1,0,0,1,0-1.413,1,1,0,0,1,1.414,0l2.829,2.828,2.829-2.828a1,1,0,0,1,1.414,0,1,1,0,0,1,0,1.413l-2.829,2.829,2.829,2.829a1,1,0,0,1,0,1.413,1,1,0,0,1-.708.294A.991.991,0,0,1-1827.221,8522.191Z"
                  transform="translate(1834.586 -8513.413)" fill="currentColor"/>
        </svg>

        <svg id="building-columns" xmlns="http://www.w3.org/2000/svg" fill="currentColor"
             viewBox="0 0 512 512">
            <path d="M494.4 128.1C505.3 134.1 512 145.5 512 157.9C512 176.8 496.8 192 477.9 192H34.06C15.25 192 0 176.8 0 157.9C0 145.5 6.745 134.1 17.61 128.1L244.4 2.986C251.6-.9954 260.4-.9954 267.6 2.986L494.4 128.1zM224 128C224 110.3 238.3 96 256 96C273.7 96 288 110.3 288 128C288 133.8 286.4 139.3 283.7 144H423.8L256 51.41L88.18 144H228.3C225.6 139.3 224 133.8 224 128V128zM64 224H112V384H176V224H224V384H288V224H336V384H400V224H448V384H456C469.3 384 480 394.7 480 408C480 421.3 469.3 432 456 432H64C50.75 432 40 421.3 40 408C40 394.7 50.75 384 64 384V224zM488 464C501.3 464 512 474.7 512 488C512 501.3 501.3 512 488 512H32C18.75 512 8 501.3 8 488C8 474.7 18.75 464 32 464H488z"/>
        </svg>
        <svg id="envelope" xmlns="http://www.w3.org/2000/svg" fill="currentColor"
             viewBox="0 0 512 512"><!--! Font Awesome Pro 6.1.1 by @fontawesome - https://fontawesome.com License - https://fontawesome.com/license (Commercial License) Copyright 2022 Fonticons, Inc. -->
            <path d="M0 128C0 92.65 28.65 64 64 64H448C483.3 64 512 92.65 512 128V384C512 419.3 483.3 448 448 448H64C28.65 448 0 419.3 0 384V128zM48 128V150.1L220.5 291.7C241.1 308.7 270.9 308.7 291.5 291.7L464 150.1V127.1C464 119.2 456.8 111.1 448 111.1H64C55.16 111.1 48 119.2 48 127.1L48 128zM48 212.2V384C48 392.8 55.16 400 64 400H448C456.8 400 464 392.8 464 384V212.2L322 328.8C283.6 360.3 228.4 360.3 189.1 328.8L48 212.2z"/>
        </svg>
        <svg id="angle-top" width="24px" height="24px" viewBox="0 0 24 24" fill="none" xmlns="http://www.w3.org/2000/svg">
            <path d="M7 14.5L12 9.5L14.5 12L17 14.5" stroke="#0095FF" stroke-width="1.5" stroke-linecap="round"
                  stroke-linejoin="round"/>
            <path d="M7 14.5L12 9.5L14.5 12" stroke="#363853" stroke-width="1.5" stroke-linecap="round"
                  stroke-linejoin="round"/>
        </svg>
    </defs>
</svg>
